{
  "extra_states_competencies": [
    "auto_loan_payment",
    "mortgage_payment",
    "credit_card_payment",
    "p2p_payment",
    "funds_transfer",
    "freeze_card",
    "credit_card_payment"
  ],
  "slot_mapper_competencies": [
    "faq_describe_account",
    "faq_open_account",
    "faq_describe_electronic_banking",
    "faq_order_checks",
    "faq_reset_pin",
    "faq_contact",
    "acc_routing",
    "credit_card_payment",
    "get_transactions"
  ]
}